module gitea.com/myuna/reverse

go 1.17


require (
	gitea.com/lunny/log v0.0.0-20190322053110-01b5df579c4e
	github.com/ahl5esoft/golang-underscore v2.0.0+incompatible
	github.com/denisenkom/go-mssqldb v0.9.0
	github.com/go-sql-driver/mysql v1.5.0
	github.com/gobwas/glob v0.2.3
	github.com/kr/pretty v0.2.1 // indirect
	github.com/lib/pq v1.7.0
	github.com/mattn/go-sqlite3 v1.14.6
	github.com/spf13/cobra v0.0.5
	github.com/stretchr/testify v1.4.0
	gopkg.in/check.v1 v1.0.0-20180628173108-788fd7840127 // indirect
	gopkg.in/yaml.v3 v3.0.0-20210107192922-496545a6307b
	xorm.io/xorm v1.1.0
)

replace (
	github.com/forestits/volita => ./
	//gitea.com/myuna/reverse => gitea.com/myuna/reverse v1.0.3
)
